<?xml version="1.0" encoding="utf-8"?>
<!-- Generator: Adobe Illustrator 19.1.0, SVG Export Plug-In . SVG Version: 6.00 Build 0)  -->
<svg version="1.1" id="Layer_1" xmlns="http://www.w3.org/2000/svg" xmlns:xlink="http://www.w3.org/1999/xlink" x="0px" y="0px"
	 viewBox="0 0 205.6 12.5" style="enable-background:new 0 0 205.6 12.5;" xml:space="preserve">
<style type="text/css">
	.st0{clip-path:url(#SVGID_2_);fill:#FFFFFF;}
	.st1{clip-path:url(#SVGID_2_);fill:none;stroke:#000000;stroke-width:0.231;}
</style>
<g>
	<defs>
		<rect id="SVGID_1_" x="0" y="0" width="205.6" height="12.5"/>
	</defs>
	<clipPath id="SVGID_2_">
		<use xlink:href="#SVGID_1_"  style="overflow:visible;"/>
	</clipPath>
	<path class="st0" d="M8.2,1.2c0,0-0.5-0.9-1.4-0.5l0,0c0,0-0.9,0.5-1.9,0l0,0c0,0-0.9-0.5-1.4,0.5l0,0.1c0,0-0.5,0.9-1.5,1.1l0,0
		c0,0-1,0.2-0.9,1.3l0,0.1c0,0,0.1,1-0.6,1.8l0,0c0,0-0.7,0.8,0,1.6l0,0c0,0,0.7,0.8,0.6,1.8l0,0.1c0,0-0.1,1,0.9,1.3l0,0
		c0,0,1,0.2,1.5,1.1l0,0.1c0,0,0.5,0.9,1.4,0.5l0,0c0,0,0.9-0.5,1.9,0l0,0c0,0,0.9,0.5,1.4-0.5l0-0.1c0,0,0.5-0.9,1.5-1.1l0,0
		c0,0,1-0.2,0.9-1.3l0-0.1c0,0-0.1-1,0.6-1.8l0,0c0,0,0.7-0.8,0-1.6l0,0c0,0-0.7-0.8-0.6-1.8l0-0.1c0,0,0.1-1-0.9-1.3l0,0
		C9.7,2.4,8.7,2.2,8.2,1.2L8.2,1.2z"/>
	<path class="st0" d="M8,1.6c0,0-0.5-0.8-1.3-0.4l0,0c0,0-0.9,0.4-1.7,0l0,0c0,0-0.9-0.4-1.3,0.4l0,0.1c0,0-0.5,0.8-1.4,1l0,0
		c0,0-0.9,0.2-0.8,1.2l0,0.1c0,0,0.1,1-0.5,1.7l0,0c0,0-0.6,0.7,0,1.4l0,0c0,0,0.6,0.7,0.5,1.7l0,0.1c0,0-0.1,1,0.8,1.2l0,0
		c0,0,0.9,0.2,1.4,1l0,0.1c0,0,0.5,0.9,1.3,0.4l0,0c0,0,0.9-0.4,1.7,0l0,0c0,0,0.9,0.4,1.3-0.4l0-0.1c0,0,0.5-0.9,1.4-1l0,0
		c0,0,0.9-0.2,0.8-1.2l0-0.1c0,0-0.1-1,0.5-1.7l0,0c0,0,0.6-0.7,0-1.4l0,0c0,0-0.6-0.7-0.5-1.7l0-0.1c0,0,0.1-1-0.8-1.2l0,0
		C9.4,2.7,8.5,2.5,8,1.6L8,1.6z"/>
	<path class="st1" d="M8,1.6c0,0-0.5-0.8-1.3-0.4l0,0c0,0-0.9,0.4-1.7,0l0,0c0,0-0.9-0.4-1.3,0.4l0,0.1c0,0-0.5,0.8-1.4,1l0,0
		c0,0-0.9,0.2-0.8,1.2l0,0.1c0,0,0.1,1-0.5,1.7l0,0c0,0-0.6,0.7,0,1.4l0,0c0,0,0.6,0.7,0.5,1.7l0,0.1c0,0-0.1,1,0.8,1.2l0,0
		c0,0,0.9,0.2,1.4,1l0,0.1c0,0,0.5,0.9,1.3,0.4l0,0c0,0,0.9-0.4,1.7,0l0,0c0,0,0.9,0.4,1.3-0.4l0-0.1c0,0,0.5-0.9,1.4-1l0,0
		c0,0,0.9-0.2,0.8-1.2l0-0.1c0,0-0.1-1,0.5-1.7l0,0c0,0,0.6-0.7,0-1.4l0,0c0,0-0.6-0.7-0.5-1.7l0-0.1c0,0,0.1-1-0.8-1.2l0,0
		C9.4,2.7,8.5,2.5,8,1.6L8,1.6z"/>
	<path class="st0" d="M122.3,3.3c0-0.8-0.2-2.6-0.1-3.1c0-0.1-0.2-0.1-0.2-0.1c-0.4,0.3-1,0.4-5,0.4c-3.8,0-4.3-0.1-4.7-0.4
		c0,0-0.2,0-0.2,0.1c0,0.6-0.4,2.2-0.5,3c0,0.1,0.2,0.1,0.3,0c0.6-1.4,1.4-2.3,3-2.3c0.5,0,0.8,0,1.2,0c0,0.6,0.1,2.2,0.1,5.2
		c0,4.9-0.1,5.3-0.2,5.4c-0.2,0.1-0.8,0.1-1.2,0.2c-0.1,0-0.1,0.2,0,0.2c0.5,0,1.4-0.1,2.2-0.1c0.9,0,1.7,0,2.2,0.1
		c0.1,0,0.1-0.2,0-0.2c-0.4-0.1-0.9-0.1-1.2-0.2c-0.1-0.1-0.2-0.5-0.2-5.4c0-2.9,0-4.6,0.1-5.2c0.5,0,0.8,0,1.5,0
		c1.7,0,2.2,0.9,2.7,2.4C122.1,3.4,122.3,3.4,122.3,3.3 M111.2,8.9c0-0.1-0.2-0.1-0.2,0c-0.3,0.8-0.8,1.8-1.2,2.1
		c-0.5,0.4-0.9,0.6-2.8,0.6c-0.9,0-1.5-0.1-1.7-0.2c-0.1-0.1-0.2-0.4-0.2-4.6c0-0.2,0-0.4,0.1-0.5c0.1-0.1,0.3-0.1,1.3-0.1
		c0.7,0,1.2,0.1,1.4,0.3c0.3,0.2,0.6,0.8,0.7,1.4c0,0.1,0.2,0.1,0.2,0c0-0.5-0.1-1-0.1-1.9c0-0.9,0-1.4,0.1-1.9c0-0.1-0.2-0.1-0.2,0
		c-0.1,0.6-0.3,1.1-0.7,1.4c-0.2,0.2-0.5,0.3-1.4,0.3c-1,0-1.2,0-1.3-0.1c-0.1,0-0.1-0.2-0.1-0.5c0-3.9,0.1-4.2,0.2-4.3
		c0.2-0.1,0.5-0.1,1.4-0.1c1.6,0,2.1,0.2,2.5,0.5c0.4,0.3,0.7,1,1,1.7c0,0.1,0.3,0.1,0.2,0c-0.1-0.3-0.1-2.5-0.3-2.6
		c-1,0-2.1,0.1-3.9,0.1c-1.8,0-3.2,0-4.1-0.1c-0.2,0-0.1,0.2,0,0.2c0.4,0.1,0.9,0.1,1.1,0.2c0.1,0.1,0.2,0.5,0.2,5.4
		c0,4.9-0.1,5.3-0.2,5.4c-0.2,0.1-0.7,0.1-1.1,0.2c-0.1,0-0.2,0.2,0,0.2c0.9,0,2.6-0.1,4.4-0.1c1.8,0,3.1,0,4.1,0.1
		C110.8,11.9,111.1,9.4,111.2,8.9 M101.2,8.9c0-0.1-0.2-0.1-0.2,0c-0.3,0.8-0.8,1.8-1.2,2.1c-0.5,0.4-0.9,0.6-2.8,0.6
		c-0.9,0-1.5-0.1-1.7-0.2c-0.1-0.1-0.2-0.4-0.2-4.6c0-0.2,0-0.4,0.1-0.5c0.1-0.1,0.3-0.1,1.3-0.1c0.7,0,1.2,0.1,1.4,0.3
		c0.3,0.2,0.6,0.8,0.7,1.4c0,0.1,0.2,0.1,0.2,0c0-0.5-0.1-1-0.1-1.9c0-0.9,0-1.4,0.1-1.9c0-0.1-0.2-0.1-0.2,0
		c-0.1,0.6-0.3,1.1-0.7,1.4c-0.2,0.2-0.5,0.3-1.4,0.3c-1,0-1.2,0-1.3-0.1c-0.1,0-0.1-0.2-0.1-0.5c0-3.9,0.1-4.2,0.2-4.3
		c0.2-0.1,0.5-0.1,1.4-0.1c1.6,0,2.1,0.2,2.5,0.5c0.4,0.3,0.7,1,1,1.7c0,0.1,0.3,0.1,0.2,0c-0.1-0.3-0.1-2.5-0.3-2.6
		c-1,0-2.1,0.1-3.9,0.1c-1.8,0-3.2,0-4.1-0.1c-0.2,0-0.1,0.2,0,0.2c0.4,0.1,0.9,0.1,1.1,0.2c0.1,0.1,0.2,0.5,0.2,5.4
		c0,4.9-0.1,5.3-0.2,5.4c-0.2,0.1-0.7,0.1-1.1,0.2c-0.1,0-0.2,0.2,0,0.2c0.9,0,2.6-0.1,4.4-0.1c1.8,0,3.1,0,4.2,0.1
		C100.8,11.9,101.1,9.4,101.2,8.9 M91.1,11.9c0.1,0,0.1-0.2,0-0.2c-0.4-0.1-0.9-0.1-1.1-0.2c-0.1-0.1-0.2-0.5-0.2-5.4
		c0-4.9,0.1-5.3,0.2-5.4c0.2-0.1,0.7-0.1,1.1-0.2c0.1,0,0.1-0.2,0-0.2c-0.5,0-1.3,0.1-2.1,0.1c-0.9,0-1.6,0-2.1-0.1
		c-0.1,0-0.1,0.2,0,0.2c0.4,0.1,0.8,0.1,1,0.2c0.1,0.1,0.2,0.6,0.2,4.5c0,0.2,0,0.4-0.1,0.5c-0.2,0.1-0.5,0.1-2.8,0.1
		s-2.7,0-2.8-0.1c-0.1-0.1-0.1-0.2-0.1-0.5c0-3.9,0.1-4.4,0.2-4.5c0.2-0.1,0.6-0.1,1-0.2c0.1,0,0.1-0.2,0-0.2
		c-0.5,0-1.2,0.1-2.1,0.1c-0.9,0-1.7,0-2.1-0.1c-0.1,0-0.1,0.2,0,0.2c0.4,0.1,0.9,0.1,1.1,0.2c0.1,0.1,0.2,0.5,0.2,5.4
		c0,4.9-0.1,5.3-0.2,5.4c-0.2,0.1-0.7,0.1-1.1,0.2c-0.1,0-0.1,0.2,0,0.2c0.4,0,1.2-0.1,2.1-0.1c0.9,0,1.6,0,2.1,0.1
		c0.1,0,0.1-0.2,0-0.2c-0.4-0.1-0.8-0.1-1-0.2c-0.1-0.1-0.2-0.6-0.2-4.8c0-0.2,0-0.4,0.1-0.5c0.2-0.1,0.5-0.1,2.8-0.1s2.6,0,2.8,0.1
		c0.1,0.1,0.1,0.2,0.1,0.5c0,4.2-0.1,4.7-0.2,4.8c-0.2,0.1-0.6,0.1-1,0.2c-0.1,0-0.1,0.2,0,0.2c0.5,0,1.2-0.1,2.1-0.1
		C89.8,11.9,90.6,11.9,91.1,11.9 M78.2,8.9c0-3.9-5.4-3.5-5.4-6.4c0-1.4,0.8-2,1.8-2c1.4,0,2.2,1,2.7,2.5c0,0.1,0.2,0.1,0.2,0
		c0-0.6,0-2.3-0.2-2.4C76.6,0.2,75.9,0,75,0c-2.3,0-3.7,1.3-3.7,3.2c0,3.3,5.4,3,5.4,6.2c0,1.4-0.9,2.3-2.1,2.3
		c-1.7,0-2.7-0.9-3.5-3.3c0-0.1-0.2-0.1-0.2,0c0.1,0.6,0.1,2.9,0.2,2.9c1.2,0.5,2.3,0.7,3.1,0.7C76.7,12.2,78.2,10.6,78.2,8.9
		 M68.1,6.2c0,3.4-1.5,5.4-4.1,5.4c-1.5,0-1.8-0.1-2.1-0.3c-0.3-0.2-0.5-1-0.5-5.1c0-4.9,0.1-5.1,0.2-5.2c0.2-0.1,0.7-0.2,1.6-0.2
		C66.3,0.7,68.1,2.6,68.1,6.2 M69.9,6.1c0-3.3-2-5.8-6.5-5.8c-0.5,0-1.4,0.1-2.3,0.1c-0.9,0-2.2,0-2.7-0.1c-0.1,0-0.1,0.2,0,0.2
		c0.4,0.1,0.9,0.1,1.1,0.2c0.1,0.1,0.2,0.5,0.2,5.4c0,4.9-0.1,5.3-0.2,5.4c-0.2,0.1-0.7,0.1-1.1,0.2c-0.1,0-0.1,0.2,0,0.2
		c0.5,0,1.9-0.1,2.8-0.1c0.9,0,2,0.1,2.4,0.1C67.3,11.9,69.9,9.4,69.9,6.1 M53.5,6.8h-1.3c-1.2,0-1.3,0-2,0c0.5-1.4,1-2.6,1.6-4.2
		c0,0,0.1-0.1,0.1,0C52.4,3.8,53.1,5.4,53.5,6.8 M58.4,11.9c0.1,0,0.1-0.2,0-0.2c-0.4-0.1-1-0.1-1.2-0.3c-0.4-0.3-0.9-1.3-4.4-11.4
		c0-0.1-0.4-0.1-0.5,0c-2.3,6.2-3.9,10.3-4.3,11c-0.2,0.3-0.5,0.5-1.3,0.6c-0.1,0-0.1,0.2,0,0.2c0.4,0,0.8-0.1,1.7-0.1
		c0.9,0,1.1,0,1.5,0.1c0.1,0,0.1-0.2,0-0.2c-0.9-0.2-1.1-0.3-1.1-0.6c0-0.3,0.6-1.9,1.3-4c0.4,0,1,0,2.2,0h1.4
		c0.3,0.8,0.5,1.5,0.8,2.2c0.7,1.9,0.5,2.1,0.3,2.2c-0.2,0.1-0.8,0.1-1.2,0.2c-0.1,0-0.1,0.2,0,0.2c0.4,0,1.9-0.1,2.8-0.1
		C57.3,11.9,58,11.9,58.4,11.9 M45.8,6.2c0,3.4-1.4,5.6-3.9,5.6c-2.5,0-4.3-2.2-4.3-5.7c0-3.4,1.4-5.6,3.9-5.6
		C44,0.5,45.8,2.7,45.8,6.2 M47.6,6.2c0-3.3-2.1-6.2-6-6.2c-3.2,0-5.9,2.7-5.9,6c0,3.3,2.1,6.2,6,6.2C45,12.2,47.6,9.5,47.6,6.2
		 M32.4,3.4c0,1.3-0.7,2.8-2.3,2.8c-1,0-1.2,0-1.4,0c-0.1,0-0.1-0.1-0.1-0.2c0-4.1,0.1-4.9,0.2-5c0.2-0.1,0.4-0.2,1.1-0.2
		C31.7,0.7,32.4,1.8,32.4,3.4 M36.5,11.9c0.1,0,0.1-0.2,0-0.2c-0.5-0.1-0.8-0.1-1.2-0.3c-0.6-0.3-1-0.9-2.3-2.9
		c-0.6-1-1.1-1.8-1.4-2.1c-0.1-0.1-0.1-0.1,0-0.1c1.6-0.4,2.7-1.6,2.7-2.9c0-1.8-1.6-3-4-3c-0.5,0-1,0.1-1.9,0.1
		c-0.9,0-2.2,0-2.7-0.1c-0.1,0-0.1,0.2,0,0.2c0.4,0.1,0.9,0.1,1.1,0.2C26.9,0.8,27,1.2,27,6.1c0,4.9-0.1,5.3-0.2,5.4
		c-0.2,0.1-0.7,0.1-1.1,0.2c-0.1,0-0.1,0.2,0,0.2c0.4,0,1.2-0.1,2.1-0.1c0.9,0,1.7,0,2.1,0.1c0.1,0,0.1-0.2,0-0.2
		c-0.4-0.1-0.8-0.1-1-0.2c-0.1-0.1-0.2-0.4-0.2-4.7c0-0.1,0-0.2,0.1-0.2c0.1,0,0.3,0,0.5,0c0.7,0,1,0.2,1.4,0.9
		c0.5,0.7,1.1,1.8,2,3.3c0.3,0.6,0.8,1.3,1,1.3c0.2,0,1.2-0.1,1.6-0.1C35.6,11.9,36.1,11.9,36.5,11.9 M22.8,8.9
		c0,1.6-0.9,2.6-2.5,2.6c-1,0-1.3-0.1-1.6-0.3c-0.3-0.2-0.3-1-0.3-5c0-0.1,0-0.2,0.1-0.2c0.2,0,0.3,0,1,0
		C21.9,5.9,22.8,7.2,22.8,8.9 M22,3.1c0,1.3-0.8,2.4-2.4,2.4c-0.8,0-0.8,0-1,0c-0.1,0-0.1-0.1-0.1-0.2c0-4.1,0.1-4.3,0.2-4.4
		c0.1-0.1,0.3-0.2,0.9-0.2C21.3,0.7,22,1.6,22,3.1 M24.6,8.7c0-1.5-1.1-2.7-3.5-3c-0.1,0-0.1-0.1,0-0.1c1.6-0.3,2.7-1.2,2.7-2.5
		c0-1.8-1.7-2.7-3.9-2.7c-0.5,0-0.8,0.1-1.7,0.1c-0.9,0-2.2,0-2.7-0.1c-0.1,0-0.1,0.2,0,0.2c0.4,0.1,0.9,0.1,1.1,0.2
		c0.1,0.1,0.2,0.5,0.2,5.4c0,4.9-0.1,5.3-0.2,5.4c-0.2,0.1-0.7,0.1-1.1,0.2c-0.1,0-0.1,0.2,0,0.2c0.5,0,1.9-0.1,2.8-0.1
		c0.9,0,1.5,0.1,1.9,0.1C22.6,11.9,24.6,10.8,24.6,8.7"/>
	<path class="st0" d="M197.8,9.6c0,1.9-0.1,2.1-1.1,2.2l-0.6,0.1c-0.1,0.1-0.1,0.4,0,0.4c1,0,1.6-0.1,2.4-0.1h1.6
		c1.6,0,3.1,0,4.7,0.1c0.2-0.5,0.7-1.8,0.8-2.4c-0.1-0.2-0.3-0.2-0.4-0.1c-0.5,0.9-0.9,1.5-1.3,1.7c-0.4,0.2-0.9,0.3-2.3,0.3
		c-1.6,0-1.9-0.2-2.1-0.4c-0.3-0.3-0.3-0.9-0.3-1.8V6.9c0-0.5,0.1-0.5,0.6-0.5h1c0.7,0,1.1,0,1.4,0.1c0.4,0.1,0.5,0.4,0.5,0.7
		l0.2,0.7c0.1,0.1,0.4,0.1,0.5,0c0-0.4-0.1-1.1-0.1-1.7c0-0.7,0.1-1.4,0.1-1.8c-0.1-0.1-0.4-0.1-0.5,0l-0.1,0.7
		c-0.1,0.4-0.2,0.5-0.4,0.6c-0.2,0.1-0.8,0.1-1.5,0.1h-1c-0.5,0-0.6,0-0.6-0.5V1.8c0-0.7,0-0.7,0.5-0.7h1.3c0.8,0,1.3,0,1.7,0.1
		c0.9,0.2,1.1,0.8,1.3,1.7c0.1,0.1,0.4,0.1,0.4,0c-0.1-0.8-0.2-2-0.3-2.3c-0.2,0.1-1.3,0.1-2.4,0.1h-3.3c-0.7,0-1.3,0-2.1-0.1
		c-0.1,0.1-0.1,0.4,0,0.4l0.3,0c1,0.1,1.1,0.4,1.1,2.2V9.6z M187.8,1.6c0-0.5,0.1-0.6,1.1-0.6c2,0,2.8,1.3,2.8,2.7
		c0,1.2-0.4,1.8-0.9,2.2c-0.5,0.4-1.2,0.5-1.8,0.5c-0.9,0-1.2,0-1.2-0.1c-0.1-0.1-0.1-0.3-0.1-0.6V1.6z M186.3,9.6
		c0,1.9,0,2.1-1.1,2.2l-0.4,0.1c-0.1,0.1-0.1,0.4,0,0.4c0.8,0,1.5-0.1,2.2-0.1c0.7,0,1.3,0,2.1,0.1c0.1-0.1,0.1-0.4,0-0.4l-0.4-0.1
		c-1-0.1-1.1-0.4-1.1-2.2V7.3c0-0.4,0-0.4,0.8-0.4c0.7,0,1,0.2,1.3,0.6c0.5,0.8,1.3,2,1.7,2.7c1.3,1.8,2.1,2.2,3.6,2.2
		c0.3,0,0.6,0,0.8-0.1c0.1-0.1,0.1-0.2,0-0.2c-0.5,0-0.9-0.2-1.2-0.5c-1.2-1-2.1-2.4-3.5-4.7c-0.1-0.1-0.2-0.3-0.1-0.4
		c0.9-0.4,2.2-1.3,2.2-2.9c0-1.2-0.6-2-1.5-2.5c-0.8-0.4-1.8-0.5-2.9-0.5c-1.7,0-2.9,0.1-3.9,0.1c-0.1,0.1-0.1,0.4,0,0.4l0.6,0.1
		c0.7,0.1,0.8,0.4,0.8,2.1V9.6z M181.5,7c0,2.7-1,4.7-3.5,4.7c-2.7,0-3.6-1.9-3.6-4.7V3.2c0-1.8,0-2.1,1.1-2.2l0.4,0
		c0.1-0.1,0.1-0.4,0-0.4c-0.9,0-1.4,0.1-2.2,0.1c-0.7,0-1.3,0-2.2-0.1c-0.1,0.1-0.1,0.4,0,0.4l0.4,0c1,0.1,1.1,0.4,1.1,2.2v4.2
		c0,2.1,0.4,3.4,1.4,4.2c0.9,0.7,2.1,1,3.3,1c1.3,0,2.6-0.5,3.4-1.3c1-1.1,1.2-2.7,1.2-4.2V5c0-1,0-3,0.2-3.6
		c0.1-0.2,0.4-0.4,0.9-0.4l0.4,0c0.1-0.1,0.1-0.3,0-0.4c-0.6,0-1.1,0.1-1.9,0.1c-0.7,0-1.3,0-2-0.1c-0.1,0.1-0.1,0.3,0,0.4l0.4,0
		c0.4,0,0.8,0.2,0.9,0.4c0.3,0.5,0.3,2.6,0.3,3.6V7z M165.6,1.7c0-0.6,0-0.6,0.5-0.6h1.3c1,0,1.6,0.1,2,0.4c0.3,0.2,0.4,0.8,0.4,1.3
		c0.1,0.1,0.4,0.1,0.5,0c-0.1-0.5,0.1-2,0.3-2.7c0-0.1-0.2-0.1-0.3-0.1c-0.3,0.5-0.4,0.5-1.4,0.5h-7.1c-0.8,0-1.4,0-1.5-0.5
		C160.2,0,160,0,160,0c-0.1,0.7-0.4,1.8-0.7,2.6c0.1,0.1,0.3,0.2,0.5,0.1c0.2-0.4,0.4-0.8,0.8-1.2c0.4-0.4,1.4-0.4,2.2-0.4h1
		c0.5,0,0.5,0,0.5,0.6v7.9c0,1.9-0.1,2.1-1.1,2.2l-0.6,0.1c-0.1,0.1-0.1,0.4,0,0.4c1.1,0,1.7-0.1,2.4-0.1c0.7,0,1.3,0,2.3,0.1
		c0.1-0.1,0.1-0.4,0-0.4l-0.6-0.1c-1-0.1-1.1-0.4-1.1-2.2V1.7z M154.1,3.5c0.2-0.5,0.4-1,0.4-1h0c0.1,0.2,0.3,0.7,0.4,1.1l1,2.9
		c0.2,0.5,0.1,0.5-0.4,0.5h-2.2c-0.5,0-0.5,0-0.4-0.4L154.1,3.5z M157.3,10.5c0.1,0.4,0.2,0.7,0.2,0.9c0,0.2-0.2,0.3-0.6,0.3
		l-0.5,0.1c-0.1,0.1-0.1,0.4,0,0.4c0.5,0,1.2-0.1,2-0.1c0.8,0,1.4,0,2.1,0.1c0.1-0.1,0.1-0.4,0-0.4l-0.5-0.1c-0.8-0.1-1-0.4-1.5-1.9
		l-2.4-7.1c-0.3-0.8-0.5-1.6-0.8-2.4c0-0.1-0.2-0.2-0.3-0.2c-0.2,0.2-0.5,0.5-0.9,0.7c0.1,0.3-0.1,0.6-0.3,1.3L152.1,7
		c-0.7,2-1.2,3.1-1.6,3.9c-0.2,0.6-0.6,0.8-1.1,0.9l-0.6,0.1c-0.1,0.1-0.1,0.4,0,0.4c0.5,0,1.1-0.1,1.7-0.1c0.8,0,1.4,0,1.8,0.1
		c0.2-0.1,0.2-0.4,0-0.4l-0.6-0.1c-0.4,0-0.5-0.1-0.5-0.4c0-0.2,0.1-0.7,0.4-1.5l0.6-1.9c0.1-0.4,0.2-0.4,0.7-0.4h2.7
		c0.5,0,0.6,0.1,0.7,0.4L157.3,10.5z M141.2,9.6c0,1.9-0.1,2.1-1.1,2.2l-0.6,0.1c-0.1,0.1-0.1,0.4,0,0.4c1,0,1.6-0.1,2.4-0.1h1.6
		c1.6,0,3.1,0,4.7,0.1c0.2-0.5,0.7-1.8,0.8-2.4c-0.1-0.2-0.3-0.2-0.4-0.1c-0.5,0.9-0.9,1.5-1.3,1.7c-0.4,0.2-0.9,0.3-2.3,0.3
		c-1.6,0-1.9-0.2-2.1-0.4c-0.3-0.3-0.3-0.9-0.3-1.8V6.9c0-0.5,0.1-0.5,0.6-0.5h1c0.7,0,1.1,0,1.4,0.1c0.4,0.1,0.5,0.4,0.5,0.7
		l0.2,0.7c0.1,0.1,0.4,0.1,0.5,0c0-0.4-0.1-1.1-0.1-1.7c0-0.7,0.1-1.4,0.1-1.8c-0.1-0.1-0.4-0.1-0.5,0l-0.1,0.7
		c-0.1,0.4-0.2,0.5-0.4,0.6c-0.2,0.1-0.8,0.1-1.5,0.1h-1c-0.5,0-0.6,0-0.6-0.5V1.8c0-0.7,0-0.7,0.5-0.7h1.3c0.8,0,1.3,0,1.7,0.1
		c0.9,0.2,1.1,0.8,1.3,1.7c0.1,0.1,0.4,0.1,0.4,0c-0.1-0.8-0.2-2-0.3-2.3c-0.2,0.1-1.3,0.1-2.4,0.1H142c-0.7,0-1.3,0-2.1-0.1
		c-0.1,0.1-0.1,0.4,0,0.4l0.3,0c1,0.1,1.1,0.4,1.1,2.2V9.6z M133.1,1.8c0-0.7,0-0.7,0.5-0.7h1.1c0.7,0,1.3,0,1.7,0.1
		c0.9,0.2,1.1,0.9,1.2,1.7c0.1,0.1,0.4,0.1,0.4-0.1c0-0.7-0.1-1.5-0.1-2.3c-0.2,0.1-1.3,0.1-2.4,0.1h-3.2c-0.7,0-1.3,0-2-0.1
		c-0.1,0.1-0.1,0.4,0,0.4l0.3,0c1,0.1,1.1,0.4,1.1,2.2v6.3c0,1.9,0,2.1-1.1,2.2l-0.4,0.1c-0.1,0.1-0.1,0.4,0,0.4
		c0.8,0,1.4-0.1,2.2-0.1c0.7,0,1.3,0,2.3,0.1c0.1-0.1,0.1-0.4,0-0.4l-0.6-0.1c-1-0.1-1.1-0.4-1.1-2.2V7.1c0-0.5,0.1-0.5,0.6-0.5h1.2
		c0.7,0,1.1,0,1.4,0.1c0.3,0.1,0.5,0.4,0.6,0.7l0.2,0.7c0.1,0.1,0.4,0.1,0.5,0c0-0.4-0.1-1.1-0.1-1.7c0-0.7,0.1-1.4,0.1-1.8
		c-0.1-0.1-0.4-0.1-0.5,0l-0.2,0.7c-0.1,0.5-0.2,0.5-0.4,0.6C136.2,6,135.6,6,134.9,6h-1.2c-0.5,0-0.6,0-0.6-0.5V1.8z"/>
</g>
</svg>
